<?xml version="1.0" encoding="UTF-8" standalone="no"?>
<!-- Created with Inkscape (http://www.inkscape.org/) -->

<svg
   xmlns:dc="http://purl.org/dc/elements/1.1/"
   xmlns:cc="http://creativecommons.org/ns#"
   xmlns:rdf="http://www.w3.org/1999/02/22-rdf-syntax-ns#"
   xmlns:svg="http://www.w3.org/2000/svg"
   xmlns="http://www.w3.org/2000/svg"
   xmlns:sodipodi="http://sodipodi.sourceforge.net/DTD/sodipodi-0.dtd"
   xmlns:inkscape="http://www.inkscape.org/namespaces/inkscape"
   width="210mm"
   height="210mm"
   viewBox="0 0 210 210"
   version="1.1"
   id="svg1559"
   inkscape:version="0.92.4 5da689c313, 2019-01-14"
   sodipodi:docname="mail.svg">
  <defs
     id="defs1553">
    <clipPath
       clipPathUnits="userSpaceOnUse"
       id="clipPath180">
      <path
         d="M 24.3616,119.195 H 110.6 V 38.3384 H 24.3616 Z"
         id="path178"
         inkscape:connector-curvature="0" />
    </clipPath>
    <clipPath
       clipPathUnits="userSpaceOnUse"
       id="clipPath184">
      <path
         d="m 110.012,58.416 c -2.015,-7.203 -9.168,-12.621 -16.642,-12.612 -5.51,0.009 -10.707,2.624 -16.201,3.03 -6.433,0.482 -12.672,-2.1 -18.555,-4.774 -7.373,-3.358 -14.986,-7.021 -23.392,-5.268 -3.642,0.76 -6.959,2.788 -8.959,5.926 -4.36,6.838 -0.394,14.272 3.606,20.351 3.419,5.205 7.177,11.013 6.128,17.15 -0.618,3.639 -2.861,6.78 -4.097,10.259 -2.099,5.933 -0.982,12.908 2.861,17.894 2.461,3.189 5.984,5.496 9.845,6.607 0.76,0.219 1.519,0.443 2.262,0.71 3.858,1.392 8.044,1.854 12.102,1.241 7.364,-1.126 14.111,-5.765 17.784,-12.248 4.19,-7.399 4.808,-17.235 11.563,-22.407 4.097,-3.131 9.599,-3.766 14.009,-6.441 6.399,-3.868 9.7,-12.215 7.686,-19.418"
         id="path182"
         inkscape:connector-curvature="0" />
    </clipPath>
    <linearGradient
       x1="0"
       y1="0"
       x2="1"
       y2="0"
       gradientUnits="userSpaceOnUse"
       gradientTransform="matrix(-4.4494381,-108.4045,-108.4045,4.4494381,70.327789,126.29921)"
       spreadMethod="pad"
       id="linearGradient192">
      <stop
         style="stop-opacity:1;stop-color:#ff9e00"
         offset="0"
         id="stop186" />
      <stop
         style="stop-opacity:1;stop-color:#ffeb28"
         offset="0.536313"
         id="stop188" />
      <stop
         style="stop-opacity:1;stop-color:#ffffaa"
         offset="1"
         id="stop190" />
    </linearGradient>
    <clipPath
       clipPathUnits="userSpaceOnUse"
       id="clipPath214">
      <path
         d="M 25.7659,113.136 H 109.196 V 31.3771 H 25.7659 Z"
         id="path212"
         inkscape:connector-curvature="0" />
    </clipPath>
    <clipPath
       clipPathUnits="userSpaceOnUse"
       id="clipPath218">
      <path
         d="m 47.723,31.521 c -4.535,0.764 -8.036,4.7 -9.535,9.051 -1.499,4.352 -1.334,9.08 -0.958,13.663 0.368,4.594 0.929,9.226 0.165,13.761 -0.706,4.187 -2.553,8.171 -5.28,11.42 -2.349,2.794 -5.453,5.27 -6.198,8.838 -0.958,4.642 2.775,9.216 7.214,10.869 4.438,1.653 9.35,1.112 14.05,0.493 4.69,-0.609 9.573,-1.257 14.079,0.213 6.15,2.011 10.434,7.562 16.091,10.714 4.97,2.766 10.903,3.012 16.525,2.156 5.533,-0.842 12.978,-4.679 14.496,-8.132 1.527,-3.462 0.889,-7.764 -1.567,-10.627 -3.539,-4.12 -10.182,-5.203 -12.493,-10.115 -1.489,-3.162 -0.609,-6.971 1.025,-10.056 1.643,-3.085 3.984,-5.754 5.637,-8.829 1.664,-3.085 2.582,-6.866 1.151,-10.056 -1.992,-4.419 -7.581,-5.9 -12.426,-5.812 -4.854,0.097 -9.834,1.19 -14.456,-0.261 C 69.896,47.138 66.182,42.448 62.295,38.416 58.408,34.384 53.244,30.583 47.723,31.521"
         id="path216"
         inkscape:connector-curvature="0" />
    </clipPath>
    <linearGradient
       x1="0"
       y1="0"
       x2="1"
       y2="0"
       gradientUnits="userSpaceOnUse"
       gradientTransform="matrix(-126.60674,2.8314605,2.8314605,126.60674,110.00948,71.340118)"
       spreadMethod="pad"
       id="linearGradient226">
      <stop
         style="stop-opacity:1;stop-color:#ff9e00"
         offset="0"
         id="stop220" />
      <stop
         style="stop-opacity:1;stop-color:#ffeb28"
         offset="0.536313"
         id="stop222" />
      <stop
         style="stop-opacity:1;stop-color:#ffffaa"
         offset="1"
         id="stop224" />
    </linearGradient>
  </defs>
  <sodipodi:namedview
     id="base"
     pagecolor="#ffffff"
     bordercolor="#666666"
     borderopacity="1.0"
     inkscape:pageopacity="0.0"
     inkscape:pageshadow="2"
     inkscape:zoom="0.35"
     inkscape:cx="-268.57143"
     inkscape:cy="560"
     inkscape:document-units="mm"
     inkscape:current-layer="layer1"
     showgrid="false"
     inkscape:window-width="1920"
     inkscape:window-height="1016"
     inkscape:window-x="0"
     inkscape:window-y="27"
     inkscape:window-maximized="1" />
  <metadata
     id="metadata1556">
    <rdf:RDF>
      <cc:Work
         rdf:about="">
        <dc:format>image/svg+xml</dc:format>
        <dc:type
           rdf:resource="http://purl.org/dc/dcmitype/StillImage" />
        <dc:title></dc:title>
      </cc:Work>
    </rdf:RDF>
  </metadata>
  <g
     inkscape:label="Calque 1"
     inkscape:groupmode="layer"
     id="layer1"
     transform="translate(0,-87)">
    <g
       transform="matrix(2.3326594,0,0,-2.3326594,-52.384046,367.53933)"
       id="g6239">
      <g
         id="g174">
        <g
           id="g176" />
        <g
           id="g206">
          <g
             id="g204"
             clip-path="url(#clipPath180)">
            <g
               id="g202">
              <g
                 id="g200"
                 clip-path="url(#clipPath184)">
                <g
                   id="g198">
                  <g
                     id="g196">
                    <path
                       inkscape:connector-curvature="0"
                       id="path194"
                       style="fill:url(#linearGradient192);stroke:none"
                       d="m 110.012,58.416 c -2.015,-7.203 -9.168,-12.621 -16.642,-12.612 -5.51,0.009 -10.707,2.624 -16.201,3.03 -6.433,0.482 -12.672,-2.1 -18.555,-4.774 -7.373,-3.358 -14.986,-7.021 -23.392,-5.268 -3.642,0.76 -6.959,2.788 -8.959,5.926 -4.36,6.838 -0.394,14.272 3.606,20.351 3.419,5.205 7.177,11.013 6.128,17.15 -0.618,3.639 -2.861,6.78 -4.097,10.259 -2.099,5.933 -0.982,12.908 2.861,17.894 2.461,3.189 5.984,5.496 9.845,6.607 0.76,0.219 1.519,0.443 2.262,0.71 3.858,1.392 8.044,1.854 12.102,1.241 7.364,-1.126 14.111,-5.765 17.784,-12.248 4.19,-7.399 4.808,-17.235 11.563,-22.407 4.097,-3.131 9.599,-3.766 14.009,-6.441 6.399,-3.868 9.7,-12.215 7.686,-19.418" />
                  </g>
                </g>
              </g>
            </g>
          </g>
        </g>
      </g>
      <g
         id="g208">
        <g
           id="g210" />
        <g
           id="g240">
          <g
             id="g238"
             clip-path="url(#clipPath214)">
            <g
               id="g236">
              <g
                 id="g234"
                 clip-path="url(#clipPath218)">
                <g
                   id="g232">
                  <g
                     id="g230">
                    <path
                       inkscape:connector-curvature="0"
                       id="path228"
                       style="fill:url(#linearGradient226);stroke:none"
                       d="m 47.723,31.521 c -4.535,0.764 -8.036,4.7 -9.535,9.051 -1.499,4.352 -1.334,9.08 -0.958,13.663 0.368,4.594 0.929,9.226 0.165,13.761 -0.706,4.187 -2.553,8.171 -5.28,11.42 -2.349,2.794 -5.453,5.27 -6.198,8.838 -0.958,4.642 2.775,9.216 7.214,10.869 4.438,1.653 9.35,1.112 14.05,0.493 4.69,-0.609 9.573,-1.257 14.079,0.213 6.15,2.011 10.434,7.562 16.091,10.714 4.97,2.766 10.903,3.012 16.525,2.156 5.533,-0.842 12.978,-4.679 14.496,-8.132 1.527,-3.462 0.889,-7.764 -1.567,-10.627 -3.539,-4.12 -10.182,-5.203 -12.493,-10.115 -1.489,-3.162 -0.609,-6.971 1.025,-10.056 1.643,-3.085 3.984,-5.754 5.637,-8.829 1.664,-3.085 2.582,-6.866 1.151,-10.056 -1.992,-4.419 -7.581,-5.9 -12.426,-5.812 -4.854,0.097 -9.834,1.19 -14.456,-0.261 C 69.896,47.138 66.182,42.448 62.295,38.416 58.408,34.384 53.244,30.583 47.723,31.521" />
                  </g>
                </g>
              </g>
            </g>
          </g>
        </g>
      </g>
      <g
         transform="translate(49.5825,89.1133)"
         id="g242">
        <path
           inkscape:connector-curvature="0"
           id="path244"
           style="fill:#ffffff;fill-opacity:1;fill-rule:nonzero;stroke:none"
           d="m 0,0 c -2.389,0 -4.333,-1.944 -4.333,-4.333 v -18.409 c 0,-2.389 1.944,-4.333 4.333,-4.333 h 30.972 c 2.389,0 4.333,1.944 4.333,4.333 V -4.333 C 35.305,-1.944 33.361,0 30.972,0 Z M 30.972,-29.663 H 0 c -3.817,0 -6.921,3.104 -6.921,6.921 v 18.409 c 0,3.816 3.104,6.921 6.921,6.921 h 30.972 c 3.816,0 6.921,-3.105 6.921,-6.921 v -18.409 c 0,-3.817 -3.105,-6.921 -6.921,-6.921" />
      </g>
      <g
         transform="translate(49.5825,89.1133)"
         id="g246">
        <path
           inkscape:connector-curvature="0"
           id="path248"
           style="fill:none;stroke:#ffffff;stroke-width:2;stroke-linecap:butt;stroke-linejoin:miter;stroke-miterlimit:10;stroke-dasharray:none;stroke-opacity:1"
           d="m 0,0 c -2.389,0 -4.333,-1.944 -4.333,-4.333 v -18.409 c 0,-2.389 1.944,-4.333 4.333,-4.333 h 30.972 c 2.389,0 4.333,1.944 4.333,4.333 V -4.333 C 35.305,-1.944 33.361,0 30.972,0 Z M 30.972,-29.663 H 0 c -3.817,0 -6.921,3.104 -6.921,6.921 v 18.409 c 0,3.816 3.104,6.921 6.921,6.921 h 30.972 c 3.816,0 6.921,-3.105 6.921,-6.921 v -18.409 c 0,-3.817 -3.105,-6.921 -6.921,-6.921 z" />
      </g>
      <g
         transform="translate(65.0684,71.9531)"
         id="g250">
        <path
           inkscape:connector-curvature="0"
           id="path252"
           style="fill:#ffffff;fill-opacity:1;fill-rule:nonzero;stroke:none"
           d="m 0,0 c -1.403,0 -2.805,0.303 -4.112,0.91 l -0.131,0.07 -17.546,10.743 1.352,2.208 17.48,-10.703 c 1.884,-0.853 4.03,-0.853 5.914,0 L 20.437,13.931 21.789,11.723 4.112,0.91 C 2.805,0.303 1.403,0 0,0" />
      </g>
      <g
         transform="translate(65.0684,71.9531)"
         id="g254">
        <path
           inkscape:connector-curvature="0"
           id="path256"
           style="fill:none;stroke:#ffffff;stroke-width:2;stroke-linecap:butt;stroke-linejoin:miter;stroke-miterlimit:10;stroke-dasharray:none;stroke-opacity:1"
           d="m 0,0 c -1.403,0 -2.805,0.303 -4.112,0.91 l -0.131,0.07 -17.546,10.743 1.352,2.208 17.48,-10.703 c 1.884,-0.853 4.03,-0.853 5.914,0 L 20.437,13.931 21.789,11.723 4.112,0.91 C 2.805,0.303 1.403,0 0,0 Z" />
      </g>
      <g
         transform="translate(44.6309,64.1328)"
         id="g258">
        <path
           inkscape:connector-curvature="0"
           id="path260"
           style="fill:#ffffff;fill-opacity:1;fill-rule:nonzero;stroke:none"
           d="m 0,0 -1.352,2.207 15.418,9.439 1.351,-2.207 z" />
      </g>
      <g
         transform="translate(44.6309,64.1328)"
         id="g262">
        <path
           inkscape:connector-curvature="0"
           id="path264"
           style="fill:none;stroke:#ffffff;stroke-width:2;stroke-linecap:butt;stroke-linejoin:miter;stroke-miterlimit:10;stroke-dasharray:none;stroke-opacity:1"
           d="m 0,0 -1.352,2.207 15.418,9.439 1.351,-2.207 z" />
      </g>
      <g
         transform="translate(85.5054,64.1328)"
         id="g266">
        <path
           inkscape:connector-curvature="0"
           id="path268"
           style="fill:#ffffff;fill-opacity:1;fill-rule:nonzero;stroke:none"
           d="m 0,0 -15.894,9.731 1.352,2.207 15.894,-9.731 z" />
      </g>
      <g
         transform="translate(85.5054,64.1328)"
         id="g270">
        <path
           inkscape:connector-curvature="0"
           id="path272"
           style="fill:none;stroke:#ffffff;stroke-width:2;stroke-linecap:butt;stroke-linejoin:miter;stroke-miterlimit:10;stroke-dasharray:none;stroke-opacity:1"
           d="m 0,0 -15.894,9.731 1.352,2.207 15.894,-9.731 z" />
      </g>
    </g>
  </g>
</svg>
